{
    "type": "minecraft:crafting_shaped",
    "pattern": [
        " # ",
        "###",
        "/ /"
    ],
    "key": {
        "#": {
            "tag": "minecraft:planks"
        },
        "/": {
            "item": "minecraft:stick"
        }
    },
    "result": {
        "item": "runicages:spinning_wheel",
        "count": 1
    }
}