{
    "type": "minecraft:crafting_shapeless",
    "ingredients": [
        {
            "item": "runicages:redberry"
        },
        {
            "item": "runicages:guam_potion_unf"
        }
    ],
    "result": {
        "item": "runicages:ranging_potion",
        "count": 1
    }
}