{
    "type": "minecraft:crafting_shapeless",
    "ingredients": [
        {
            "item": "runicages:pestle_and_mortar"
        },
		{
            "item": "runicages:magic_notepaper"
        }
    ],
    "result": {
        "item": "runicages:noted_pestle_and_mortar",
        "count": 1
    }
}