{
    "type": "minecraft:crafting_shapeless",
    "ingredients": [
        {
            "item": "runicages:noted_bowstring"
        }
    ],
    "result": {
        "item": "runicages:bowstring",
        "count": 1
    }
}