{
    "type": "minecraft:crafting_shapeless",
    "ingredients": [
        {
            "item": "runicages:noted_spider_carcass"
        }
    ],
    "result": {
        "item": "runicages:spider_carcass",
        "count": 1
    }
}