{
    "type": "minecraft:crafting_shapeless",
    "ingredients": [
        {
            "item": "runicages:noted_gold_bracelet"
        }
    ],
    "result": {
        "item": "runicages:gold_bracelet",
        "count": 1
    }
}