{
    "type": "minecraft:crafting_shapeless",
    "ingredients": [
        {
            "item": "runicages:noted_thatch_spar"
        }
    ],
    "result": {
        "item": "runicages:light_thatch_spar",
        "count": 1
    }
}