{
    "type": "minecraft:crafting_shapeless",
    "ingredients": [
        {
            "item": "runicages:amulet_of_magic"
        },
		{
            "item": "runicages:magic_notepaper"
        }
    ],
    "result": {
        "item": "runicages:noted_amulet_of_magic",
        "count": 1
    }
}