{
    "type": "minecraft:crafting_shapeless",
    "ingredients": [
        {
            "item": "runicages:noted_bronze_sq_shield"
        }
    ],
    "result": {
        "item": "runicages:bronze_sq_shield",
        "count": 1
    }
}