{
    "type": "minecraft:crafting_shapeless",
    "ingredients": [
        {
            "item": "runicages:noted_wizard_hat"
        }
    ],
    "result": {
        "item": "runicages:wizard_hat",
        "count": 1
    }
}