{
    "type": "minecraft:crafting_shapeless",
    "ingredients": [
        {
            "item": "runicages:unstrung_sapphire_amulet"
        },
		{
            "item": "runicages:magic_notepaper"
        }
    ],
    "result": {
        "item": "runicages:noted_unstrung_sapphire_amulet",
        "count": 1
    }
}