{
    "type": "minecraft:crafting_shapeless",
    "ingredients": [
        {
            "item": "runicages:filled_sapphire_ring_mold"
        },
		{
            "item": "runicages:magic_notepaper"
        }
    ],
    "result": {
        "item": "runicages:noted_filled_sapphire_ring_mold",
        "count": 1
    }
}