{
    "type": "minecraft:crafting_shaped",
    "pattern": [
        "###",
        "#R#",
        "###"
    ],
    "key": {
        "#": {
            "item": "runicages:birch_log_item"
        },
        "R": {
            "item": "runicages:magic_notepaper"
        }
    },
    "result": {
        "item": "runicages:noted_birch_log",
        "count": 8
    }
}