{
    "type": "minecraft:crafting_shapeless",
    "ingredients": [
        {
            "item": "runicages:noted_amulet_mold"
        }
    ],
    "result": {
        "item": "runicages:amulet_mold",
        "count": 1
    }
}