{
    "type": "minecraft:crafting_shapeless",
    "ingredients": [
        {
            "item": "runicages:pure_essence"
        },
		{
            "item": "runicages:magic_notepaper"
        }
    ],
    "result": {
        "item": "runicages:noted_pure_essence",
        "count": 1
    }
}