{
    "type": "minecraft:crafting_shapeless",
    "ingredients": [
        {
            "item": "runicages:noted_staff"
        }
    ],
    "result": {
        "item": "runicages:staff",
        "count": 1
    }
}