{
    "type": "minecraft:crafting_shapeless",
    "ingredients": [
        {
            "item": "runicages:noted_silver_ring"
        }
    ],
    "result": {
        "item": "runicages:silver_ring",
        "count": 1
    }
}