{
    "type": "minecraft:crafting_shapeless",
    "ingredients": [
        {
            "item": "runicages:noted_blurite_ore"
        }
    ],
    "result": {
        "item": "runicages:blurite_ore",
        "count": 1
    }
}