{
    "type": "minecraft:crafting_shapeless",
    "ingredients": [
        {
            "item": "runicages:body_tiara"
        },
		{
            "item": "runicages:magic_notepaper"
        }
    ],
    "result": {
        "item": "runicages:noted_body_tiara",
        "count": 1
    }
}