{
    "type": "minecraft:crafting_shapeless",
    "ingredients": [
        {
            "item": "runicages:noted_uncut_sapphire"
        }
    ],
    "result": {
        "item": "runicages:uncut_sapphire",
        "count": 1
    }
}