{
  "name": "Black Bear",
  "icon": "runicages:black_bear_spawn_egg",
  "category": "runicages:mobs",
  "pages": [
    {
      "type": "entity",
      "entity": "runicages:black_bear",
      "scale": "0.5",
      "text": "Neutral animal mobs that spawn in forests, rivers and taigas during the day."
    },
    {
      "type": "text",
      "text": "Black bears are fairly protective of their cubs but drop a material used for Herblore. Considered weaker versions of grizzly bears."
    }
  ]
}