{
  "type": "runicages:vegetal",
  "biomes": [
    "minecraft:old_growth_pine_taiga",
	"minecraft:old_growth_spruce_taiga",
    "minecraft:taiga",
    "minecraft:snowy_taiga"
  ],
  "feature": "runicages:iron_rock_placed_conifer"
}