{
  "type": "runicages:ores",
  "biomes": [
  "minecraft:snowy_plains",
  "minecraft:ice_spikes",
  "minecraft:snowy_taiga",
  "minecraft:grove",
  "minecraft:snowy_slopes",
  "minecraft:frozen_peaks",
  "minecraft:jagged_peaks",
  "minecraft:stony_peaks",
  "minecraft:frozen_river",
  "minecraft:snowy_beach",
  "minecraft:deep_frozen_ocean"
  ],
  "feature": "runicages:rune_ore_placed"
}