{
  "replace": false,

  "_comment": " This biome tag can specify the biome directly. Or specify another biome tag by starting with # ",
  "values": [
    "minecraft:windswept_hills",
    "minecraft:windswept_gravelly_hills",
    "minecraft:windswept_forest",
    "minecraft:meadow",
    "minecraft:stony_peaks",
	"minecraft:savanna_plateau",
	"minecraft:windswept_savanna",
	"minecraft:eroded_badlands",
	"minecraft:jagged_peaks",
	"minecraft:frozen_peaks",
	"minecraft:snowy_slopes"
  ]
}