{
  "values": [
    "minecraft:chicken",
    "minecraft:skeleton",
    "minecraft:fox",
    "minecraft:frog",
    "minecraft:wolf",
	"runicages:grizzly_bear",
	"runicages:black_bear",
	"runicages:imp"
  ]
}