{
    "name": "Strung Rabbit Foot",
    "icon": "runicages:strung_rabbit_foot",
    "category": "runicages:woodcutting",
	"sortnum": 6,
    "pages": [
        {
            "type": "patchouli:spotlight", 
			"item": "runicages:strung_rabbit_foot",
			"title": "",
			"text": "Strung Rabbit Feet can be made with string and rabbit feet. Having a Strung Rabbit Foot in the inventory will help increase the rate bird nests drop while woodcutting."
        },
		{
			"type": "patchouli:crafting",
			"recipe": "runicages:strung_rabbit_foot",
			"title": "",
			"text": ""
		}
    ]
}