{
  "type": "runicages:adamantite_alloy_furnace",
  "ingredients": [
    {
      "item": "runicages:tiny_plated_bronze_salvage"
    },
    {
     "item": "runicages:tiny_plated_bronze_salvage"
    }
  ],
  "output": {
    "item": "runicages:bronze_bar"
  }
}