{
    "name": "Tin Ore",
    "icon": "runicages:tin_ore_block",
    "category": "runicages:mining",
	"sortnum": 9,
    "pages": [
        {
            "type": "patchouli:text",
            "text": ""
        },
		{
            "type": "patchouli:spotlight", 
			"item": "runicages:tin_ore_block",
			"title": "",
			"text": "Tin ore is a mineral found underground in any biome from cave to deepslate depth. It drops tin ore like its surface-rock version and veins underground are typically more plentiful than tin rocks at the exchange of not being replenishable."
        }
    ]
}