{
    "name": "Jewelry",
    "icon": "runicages:sapphire_ring",
    "category": "runicages:crafting",
	"sortnum": 7,
    "pages": [
        {
            "type": "patchouli:spotlight", 
			"item": "runicages:sapphire_ring",
			"title": "",
			"text": "Jewelry is one of the latter methods of leveling the Crafting skill as it has a somewhat high but optional entry barrier: Level 20 and/or 40 Smithing in order to be able to smelt silver and gold bars if the player does not get them supplied from villagers."
        },	
		{
            "type": "patchouli:text",
            "text": "Jewelry also has utility with the Magic skill, allowing the player to enchant semi-precious and precious gem jewelry into useful utility items."
        }
    ]
}