{
    "name": "Mold Press",
    "icon": "runicages:mold_press",
    "category": "runicages:crafting",
	"sortnum": 3,
    "pages": [
        {
            "type": "patchouli:spotlight", 
			"item": "runicages:mold_press",
			"title": "",
			"text": "Mold Presses are crafting stations used to manufacture jewelry molds and jewlery with said molds. Molds can be made by inserting a clay ball into any of the five mold slots."
        },	
		{
            "type": "patchouli:text",
            "text": "Filled molds can be made by inserting a mold, a silver/gold bar and optionally, a gem. Filled molds can then be put into silver or gold smithing furnaces to produce finished jewelry from the filled mold."
        }
    ]
}