{
    "type": "minecraft:crafting_shaped",
    "pattern": [
        "X#X",
        "# #",
        "X#X"
    ],
    "key": {
        "#": {
            "item": "minecraft:cobblestone"
        },
		"X": {
            "item": "minecraft:clay_ball"
        }
    },
    "result": {
        "item": "runicages:alloy_furnace",
        "count": 1
    }
}