{
  "type": "minecraft:crafting_shapeless",
  "category": "misc",
  "group": "rabbit_stew",
  "ingredients": [
    {
      "item": "minecraft:baked_potato"
    },
    {
      "item": "minecraft:cooked_rabbit"
    },
    {
      "item": "runicages:clay_bowl"
    },
    {
      "item": "minecraft:carrot"
    },
    {
      "item": "minecraft:brown_mushroom"
    }
  ],
  "result": {
    "item": "minecraft:rabbit_stew"
  }
}