{
    "type": "minecraft:crafting_shaped",
    "pattern": [
        " # ",
        "#R#",
        " # "
    ],
    "key": {
        "#": {
            "tag": "minecraft:coal"
        },
        "R": {
            "item": "runicages:iron_alloy_furnace"
        }
    },
    "result": {
        "item": "runicages:steel_alloy_furnace",
        "count": 1
    }
}