{
	"credit": "Made with Blockbench",
	"textures": {
		"4": "runicages:block/allotment_wet",
		"9": "block/oak_trapdoor",
		"10": "block/oak_planks",
		"11": "block/oak_door_bottom",
		"12": "runicages:block/bush_patch_wet",
		"particle": "runicages:block/allotment_wet"
	},
	"elements": [
		{
			"from": [0, 16, 1],
			"to": [1, 17, 15],
			"faces": {
				"east": {"uv": [0, 3, 16, 4], "texture": "#10"},
				"west": {"uv": [0, 3, 16, 4], "texture": "#10"},
				"up": {"uv": [0, 3, 16, 4], "rotation": 90, "texture": "#10"}
			}
		},
		{
			"from": [15, 7, 1],
			"to": [16, 8, 15],
			"faces": {
				"east": {"uv": [0, 3, 16, 4], "texture": "#10"},
				"up": {"uv": [0, 3, 16, 4], "rotation": 90, "texture": "#10"}
			}
		},
		{
			"from": [0, 16, 15],
			"to": [16, 17, 16],
			"faces": {
				"north": {"uv": [0, 3, 16, 4], "texture": "#10"},
				"east": {"uv": [0, 0, 1, 1], "texture": "#10"},
				"south": {"uv": [0, 3, 16, 4], "texture": "#10"},
				"west": {"uv": [0, 0, 1, 1], "texture": "#10"},
				"up": {"uv": [0, 3, 16, 4], "texture": "#10"}
			}
		},
		{
			"from": [0, 7, 0],
			"to": [16, 8, 1],
			"faces": {
				"north": {"uv": [0, 3, 16, 4], "texture": "#10"},
				"east": {"uv": [0, 0, 1, 1], "texture": "#10"},
				"west": {"uv": [0, 0, 1, 1], "texture": "#10"},
				"up": {"uv": [0, 3, 16, 4], "texture": "#10"}
			}
		},
		{
			"from": [0, 7, 1],
			"to": [1, 8, 15],
			"faces": {
				"west": {"uv": [0, 5, 16, 6], "texture": "#10"},
				"up": {"uv": [4, 0, 5, 16], "texture": "#10"}
			}
		},
		{
			"from": [15, 16, 1],
			"to": [16, 17, 15],
			"faces": {
				"east": {"uv": [0, 13, 16, 14], "texture": "#10"},
				"west": {"uv": [0, 5, 16, 6], "texture": "#10"},
				"up": {"uv": [4, 0, 5, 16], "texture": "#10"}
			}
		},
		{
			"from": [0, 16, 0],
			"to": [16, 17, 1],
			"faces": {
				"north": {"uv": [0, 5, 16, 6], "texture": "#10"},
				"east": {"uv": [6, 2, 7, 3], "texture": "#10"},
				"south": {"uv": [0, 13, 16, 14], "texture": "#10"},
				"west": {"uv": [7, 3, 8, 4], "texture": "#10"},
				"up": {"uv": [4, 0, 5, 16], "rotation": 90, "texture": "#10"}
			}
		},
		{
			"from": [0, 7, 15],
			"to": [16, 8, 16],
			"faces": {
				"east": {"uv": [6, 2, 7, 3], "texture": "#10"},
				"south": {"uv": [0, 13, 16, 14], "texture": "#10"},
				"west": {"uv": [7, 3, 8, 4], "texture": "#10"},
				"up": {"uv": [4, 0, 5, 16], "rotation": 90, "texture": "#10"}
			}
		},
		{
			"from": [6, 15, 0],
			"to": [10, 16, 1],
			"faces": {
				"north": {"uv": [0, 0, 4, 1], "texture": "#12"},
				"down": {"uv": [0, 0, 6, 1], "texture": "#12"}
			}
		},
		{
			"from": [1, 15, 0],
			"to": [4, 16, 1],
			"faces": {
				"north": {"uv": [0, 0, 3, 1], "texture": "#12"},
				"west": {"uv": [0, 0, 1, 1], "texture": "#12"},
				"down": {"uv": [0, 0, 3, 1], "texture": "#12"}
			}
		},
		{
			"from": [12, 15, 15],
			"to": [15, 16, 16],
			"faces": {
				"east": {"uv": [0, 0, 1, 1], "texture": "#12"},
				"south": {"uv": [0, 0, 3, 1], "texture": "#12"},
				"down": {"uv": [0, 0, 3, 1], "texture": "#12"}
			}
		},
		{
			"from": [12, 15, 0],
			"to": [15, 16, 1],
			"faces": {
				"north": {"uv": [0, 0, 3, 1], "texture": "#12"},
				"east": {"uv": [0, 0, 1, 1], "texture": "#12"},
				"down": {"uv": [0, 0, 3, 1], "texture": "#12"}
			}
		},
		{
			"from": [6, 15, 15],
			"to": [10, 16, 16],
			"faces": {
				"south": {"uv": [0, 0, 4, 1], "texture": "#12"},
				"down": {"uv": [0, 0, 6, 1], "texture": "#12"}
			}
		},
		{
			"from": [15, 15, 6],
			"to": [16, 16, 10],
			"faces": {
				"east": {"uv": [0, 0, 4, 1], "texture": "#12"},
				"down": {"uv": [0, 0, 1, 6], "texture": "#12"}
			}
		},
		{
			"from": [0, 15, 6],
			"to": [1, 16, 10],
			"faces": {
				"west": {"uv": [0, 0, 4, 1], "texture": "#12"},
				"down": {"uv": [0, 0, 1, 6], "texture": "#12"}
			}
		},
		{
			"from": [15, 15, 1],
			"to": [16, 16, 4],
			"faces": {
				"north": {"uv": [0, 0, 1, 1], "texture": "#12"},
				"east": {"uv": [0, 0, 3, 1], "texture": "#12"},
				"down": {"uv": [0, 0, 1, 6], "texture": "#12"}
			}
		},
		{
			"from": [0, 15, 12],
			"to": [1, 16, 15],
			"faces": {
				"south": {"uv": [0, 0, 1, 1], "texture": "#12"},
				"west": {"uv": [0, 0, 3, 1], "texture": "#12"},
				"down": {"uv": [0, 0, 1, 6], "texture": "#12"}
			}
		},
		{
			"from": [0, 15, 1],
			"to": [1, 16, 4],
			"faces": {
				"north": {"uv": [0, 0, 1, 1], "texture": "#12"},
				"west": {"uv": [0, 0, 3, 1], "texture": "#12"},
				"down": {"uv": [0, 0, 1, 6], "texture": "#12"}
			}
		},
		{
			"from": [15, 15, 12],
			"to": [16, 16, 15],
			"faces": {
				"east": {"uv": [0, 0, 3, 1], "texture": "#12"},
				"south": {"uv": [0, 0, 1, 1], "texture": "#12"},
				"down": {"uv": [0, 0, 1, 6], "texture": "#12"}
			}
		},
		{
			"from": [1, 15, 15],
			"to": [4, 16, 16],
			"faces": {
				"south": {"uv": [0, 0, 3, 1], "texture": "#12"},
				"west": {"uv": [0, 0, 1, 1], "texture": "#12"},
				"down": {"uv": [0, 0, 3, 1], "texture": "#12"}
			}
		},
		{
			"from": [1, 15, 1],
			"to": [15, 16, 15],
			"faces": {
				"up": {"uv": [0, 0, 16, 16], "texture": "#12"}
			}
		},
		{
			"from": [1, 1, 1],
			"to": [15, 15, 15],
			"faces": {
				"north": {"uv": [0, 0, 16, 15], "texture": "#4"},
				"east": {"uv": [0, 0, 16, 15], "texture": "#4"},
				"south": {"uv": [0, 0, 16, 15], "texture": "#4"},
				"west": {"uv": [0, 0, 16, 15], "texture": "#4"},
				"down": {"uv": [0, 0, 16, 16], "texture": "#4"}
			}
		},
		{
			"from": [15, 0, 4],
			"to": [16, 7, 6],
			"faces": {
				"north": {"uv": [12, 5, 13, 12], "texture": "#11"},
				"east": {"uv": [13, 5, 15, 12], "texture": "#11"},
				"south": {"uv": [15, 5, 16, 12], "texture": "#11"},
				"down": {"uv": [14, 0, 15, 2], "texture": "#11"}
			}
		},
		{
			"from": [15, 0, 10],
			"to": [16, 7, 12],
			"faces": {
				"north": {"uv": [12, 5, 13, 12], "texture": "#11"},
				"east": {"uv": [15, 5, 13, 12], "texture": "#11"},
				"south": {"uv": [15, 5, 16, 12], "texture": "#11"},
				"down": {"uv": [14, 0, 15, 2], "texture": "#11"}
			}
		},
		{
			"from": [0, 0, 4],
			"to": [1, 7, 6],
			"faces": {
				"north": {"uv": [12, 5, 13, 12], "texture": "#11"},
				"south": {"uv": [15, 5, 16, 12], "texture": "#11"},
				"west": {"uv": [15, 5, 13, 12], "texture": "#11"},
				"down": {"uv": [14, 0, 15, 2], "texture": "#11"}
			}
		},
		{
			"from": [0, 0, 10],
			"to": [1, 7, 12],
			"faces": {
				"north": {"uv": [12, 5, 13, 12], "texture": "#11"},
				"south": {"uv": [15, 5, 16, 12], "texture": "#11"},
				"west": {"uv": [13, 5, 15, 12], "texture": "#11"},
				"down": {"uv": [14, 0, 15, 2], "texture": "#11"}
			}
		},
		{
			"from": [15, 8, 10],
			"to": [16, 16, 12],
			"faces": {
				"north": {"uv": [12, 4, 13, 12], "texture": "#11"},
				"east": {"uv": [15, 4, 13, 12], "texture": "#11"},
				"south": {"uv": [15, 4, 16, 12], "texture": "#11"}
			}
		},
		{
			"from": [0, 8, 10],
			"to": [1, 16, 12],
			"faces": {
				"north": {"uv": [12, 4, 13, 12], "texture": "#11"},
				"south": {"uv": [15, 4, 16, 12], "texture": "#11"},
				"west": {"uv": [13, 4, 15, 12], "texture": "#11"}
			}
		},
		{
			"from": [0, 8, 4],
			"to": [1, 16, 6],
			"faces": {
				"north": {"uv": [12, 4, 13, 12], "texture": "#11"},
				"south": {"uv": [15, 4, 16, 12], "texture": "#11"},
				"west": {"uv": [15, 4, 13, 12], "texture": "#11"}
			}
		},
		{
			"from": [15, 8, 4],
			"to": [16, 16, 6],
			"faces": {
				"north": {"uv": [12, 4, 13, 12], "texture": "#11"},
				"east": {"uv": [13, 4, 15, 12], "texture": "#11"},
				"south": {"uv": [15, 4, 16, 12], "texture": "#11"}
			}
		},
		{
			"from": [10, 8, 15],
			"to": [12, 16, 16],
			"faces": {
				"east": {"uv": [15, 4, 16, 12], "texture": "#11"},
				"south": {"uv": [13, 4, 15, 12], "texture": "#11"},
				"west": {"uv": [12, 4, 13, 12], "texture": "#11"}
			}
		},
		{
			"from": [4, 8, 0],
			"to": [6, 16, 1],
			"faces": {
				"north": {"uv": [13, 4, 15, 12], "texture": "#11"},
				"east": {"uv": [15, 4, 16, 12], "texture": "#11"},
				"west": {"uv": [12, 4, 13, 12], "texture": "#11"}
			}
		},
		{
			"from": [10, 8, 0],
			"to": [12, 16, 1],
			"faces": {
				"north": {"uv": [15, 4, 13, 12], "texture": "#11"},
				"east": {"uv": [15, 4, 16, 12], "texture": "#11"},
				"west": {"uv": [12, 4, 13, 12], "texture": "#11"}
			}
		},
		{
			"from": [4, 8, 15],
			"to": [6, 16, 16],
			"faces": {
				"east": {"uv": [15, 4, 16, 12], "texture": "#11"},
				"south": {"uv": [15, 4, 13, 12], "texture": "#11"},
				"west": {"uv": [12, 4, 13, 12], "texture": "#11"}
			}
		},
		{
			"from": [4, 0, 15],
			"to": [6, 7, 16],
			"faces": {
				"east": {"uv": [15, 4, 16, 11], "texture": "#11"},
				"south": {"uv": [15, 4, 13, 11], "texture": "#11"},
				"west": {"uv": [12, 4, 13, 11], "texture": "#11"},
				"down": {"uv": [13, 2, 15, 3], "texture": "#11"}
			}
		},
		{
			"from": [4, 0, 0],
			"to": [6, 7, 1],
			"faces": {
				"north": {"uv": [13, 4, 15, 11], "texture": "#11"},
				"east": {"uv": [15, 4, 16, 11], "texture": "#11"},
				"west": {"uv": [12, 4, 13, 11], "texture": "#11"},
				"down": {"uv": [13, 2, 15, 3], "texture": "#11"}
			}
		},
		{
			"from": [10, 0, 0],
			"to": [12, 7, 1],
			"faces": {
				"north": {"uv": [15, 4, 13, 11], "texture": "#11"},
				"east": {"uv": [15, 4, 16, 11], "texture": "#11"},
				"west": {"uv": [12, 4, 13, 11], "texture": "#11"},
				"down": {"uv": [13, 2, 15, 3], "texture": "#11"}
			}
		},
		{
			"from": [10, 0, 15],
			"to": [12, 7, 16],
			"faces": {
				"east": {"uv": [15, 4, 16, 11], "texture": "#11"},
				"south": {"uv": [13, 4, 15, 11], "texture": "#11"},
				"west": {"uv": [12, 4, 13, 11], "texture": "#11"},
				"down": {"uv": [13, 2, 15, 3], "texture": "#11"}
			}
		},
		{
			"from": [1, 0, 1],
			"to": [15, 1, 15],
			"faces": {
				"north": {"uv": [1, 0, 15, 1], "texture": "#9"},
				"east": {"uv": [1, 15, 15, 16], "texture": "#9"},
				"south": {"uv": [1, 0, 15, 1], "texture": "#9"},
				"west": {"uv": [1, 0, 15, 1], "texture": "#9"},
				"up": {"uv": [1, 1, 15, 15], "texture": "#9"},
				"down": {"uv": [1, 1, 15, 15], "texture": "#9"}
			}
		}
	],
	"groups": [
		0,
		1,
		2,
		3,
		4,
		5,
		6,
		7,
		8,
		9,
		10,
		11,
		12,
		13,
		14,
		15,
		16,
		17,
		18,
		19,
		{
			"name": "VoxelShapes",
			"origin": [8, 8, 8],
			"color": 0,
			"children": [20, 21]
		},
		22,
		23,
		24,
		25,
		26,
		27,
		28,
		29,
		30,
		31,
		32,
		33,
		34,
		35,
		36,
		37,
		38
	]
}