{
   "parent": "block/cube",
   "textures": {
                        "particle": "runicages:block/altar_side",
		"down": "runicages:block/altar_side",
		"up": "runicages:block/fire_altar",
		"north": "runicages:block/altar_side",
		"east": "runicages:block/altar_side",
		"south": "runicages:block/altar_side",
		"west": "runicages:block/altar_side"
   }
}
