{
  "feature": "runicages:copper",
  "placement": [
    {
      "type": "minecraft:rarity_filter",
      "chance": 16
    },
    {
      "type": "minecraft:in_square"
    },
    {
      "type": "minecraft:heightmap",
      "heightmap": "WORLD_SURFACE_WG"
    },
    {
      "type": "minecraft:biome"
    }
  ]
}