{
    "type": "minecraft:crafting_shaped",
    "pattern": [
        "   ",
        "# #",
        "# #"
    ],
    "key": {
        "#": {
            "item": "runicages:bronze_bar"
        }
    },
    "result": {
        "item": "runicages:bronze_boots",
        "count": 1
    }
}