{
    "type": "minecraft:crafting_shaped",
    "pattern": [
        "#",
        "#",
        "/"
    ],
    "key": {
        "#": {
            "item": "runicages:bronze_bar"
        },
        "/": {
            "item": "minecraft:stick"
        }
    },
    "result": {
        "item": "runicages:bronze_sword",
        "count": 1
    }
}