{
  "parent": "item/generated",
  "textures": {
    "layer0": "runicages:item/farming/seeds/cabbage/cabbage_seed_one"
  },
  "overrides": [
    {
      "predicate": 
	  {
        "count": 1
      },
      "model": "runicages:item/cabbage_seed_one"
    },
	{
      "predicate": 
	  {
        "count": 2
      },
      "model": "runicages:item/cabbage_seed_two"
    },
	{
      "predicate": 
	  {
        "count": 3
      },
      "model": "runicages:item/cabbage_seed_three"
    },
	{
      "predicate": 
	  {
        "count": 4
      },
      "model": "runicages:item/cabbage_seed_four"
    },
	{
      "predicate": 
	  {
        "count": 5
      },
      "model": "runicages:item/cabbage_seed_five"
    }
  ]
}