{
  "variants": {
    "moisture=0": {
      "model": "runicages:block/farming/herb_patch"
    },
    "moisture=1": {
      "model": "runicages:block/farming/herb_patch"
    },
    "moisture=2": {
      "model": "runicages:block/farming/herb_patch"
    },
    "moisture=3": {
      "model": "runicages:block/farming/herb_patch"
    },
    "moisture=4": {
      "model": "runicages:block/farming/herb_patch"
    },
    "moisture=5": {
      "model": "runicages:block/farming/herb_patch"
    },
    "moisture=6": {
      "model": "runicages:block/farming/herb_patch"
    },
    "moisture=7": {
      "model": "runicages:block/farming/herb_patch_wet"
    }
  }
}