{
    "variants": {
		"facing=north":  { "model": "runicages:block/crafting/sewing_hoop" },
        "facing=east":   { "model": "runicages:block/crafting/sewing_hoop", "y": 90 },
        "facing=south":   { "model": "runicages:block/crafting/sewing_hoop", "y": 180 },
        "facing=west":   { "model": "runicages:block/crafting/sewing_hoop", "y": 270 }
    }
}
