{
    "variants": 
    {    
        "facing=south": 
        { 
            "model": "runicages:block/ore/silver_rock" 
        },
    
        "facing=east": 
        { 
            "model": "runicages:block/ore/silver_rock","y":270 
        },
    
        "facing=west": 
        { 
            "model": "runicages:block/ore/silver_rock","y":90 
        },
    
        "facing=north": 
        { 
            "model": "runicages:block/ore/silver_rock","y":180 
        }
    }
}
