{
    "variants": {
		"facing=north":  { "model": "runicages:block/smithing/smithing_furnace" },
        "facing=east":   { "model": "runicages:block/smithing/smithing_furnace", "y": 90 },
        "facing=south":   { "model": "runicages:block/smithing/smithing_furnace", "y": 180 },
        "facing=west":   { "model": "runicages:block/smithing/smithing_furnace", "y": 270 }
    }
}
