{
    "variants": {
		"facing=north":  { "model": "runicages:block/runecrafting/water_altar_cyclic_stone" },
        "facing=east":   { "model": "runicages:block/runecrafting/water_altar_cyclic_stone", "y": 90 },
        "facing=south":   { "model": "runicages:block/runecrafting/water_altar_cyclic_stone", "y": 180 },
        "facing=west":   { "model": "runicages:block/runecrafting/water_altar_cyclic_stone", "y": 270 }
    }
}
